{
	"CACHE_L_CB": 0,
	"CACHE_P_CB": 0,
	"G_CB_RES_DEST_LEVEL": 2,
	"L_CB_RES_DEST_LEVEL": 0,
	"P_CB_RES_DEST_LEVEL": 0,
	"L_CB_SIZE_L_1": 1,
	"P_CB_SIZE_L_1": 1,
	"NUM_WG_L_1": 1,
	"NUM_WI_L_1": 1,
	"OCL_DIM_L_1": 1,
	"L_CB_SIZE_L_2": 64,
	"P_CB_SIZE_L_2": 1,
	"NUM_WG_L_2": 512,
	"NUM_WI_L_2": 64,
	"OCL_DIM_L_2": 0,
	"L_CB_SIZE_R_1": 1,
	"P_CB_SIZE_R_1": 1,
	"NUM_WG_R_1": 1,
	"NUM_WI_R_1": 1,
	"OCL_DIM_R_1": 2
}
