{
	"CACHE_L_CB": 0,
	"CACHE_P_CB": 0,
	"G_CB_RES_DEST_LEVEL": 2,
	"L_CB_RES_DEST_LEVEL": 1,
	"P_CB_RES_DEST_LEVEL": 0,
	"L_CB_SIZE_L_1": 2,
	"P_CB_SIZE_L_1": 1,
	"NUM_WG_L_1": 16,
	"NUM_WI_L_1": 4,
	"OCL_DIM_L_1": 1,
	"L_CB_SIZE_L_2": 64,
	"P_CB_SIZE_L_2": 1,
	"NUM_WG_L_2": 4,
	"NUM_WI_L_2": 16,
	"OCL_DIM_L_2": 2,
	"L_CB_SIZE_L_3": 4,
	"P_CB_SIZE_L_3": 2,
	"NUM_WG_L_3": 16,
	"NUM_WI_L_3": 2,
	"OCL_DIM_L_3": 0
}
