{
  "CACHE_L_CB": 0,
  "CACHE_P_CB": 0,
  "G_CB_RES_DEST_LEVEL": 2,
  "G_CB_SIZE_L_1": 24,
  "G_CB_SIZE_L_2": 16,
  "G_CB_SIZE_L_3": 16,
  "G_CB_SIZE_L_4": 24,
  "G_CB_SIZE_L_5": 16,
  "G_CB_SIZE_L_6": 16,
  "G_CB_SIZE_R_1": 24,
  "L_CB_RES_DEST_LEVEL": 1,
  "L_CB_SIZE_L_1": 1,
  "L_CB_SIZE_L_2": 16,
  "L_CB_SIZE_L_3": 1,
  "L_CB_SIZE_L_4": 1,
  "L_CB_SIZE_L_5": 16,
  "L_CB_SIZE_L_6": 8,
  "L_CB_SIZE_R_1": 24,
  "NUM_WG_L_1": 24,
  "NUM_WG_L_2": 1,
  "NUM_WG_L_3": 16,
  "NUM_WG_L_4": 24,
  "NUM_WG_L_5": 1,
  "NUM_WG_L_6": 2,
  "NUM_WG_R_1": 1,
  "NUM_WI_L_1": 1,
  "NUM_WI_L_2": 16,
  "NUM_WI_L_3": 1,
  "NUM_WI_L_4": 1,
  "NUM_WI_L_5": 1,
  "NUM_WI_L_6": 4,
  "NUM_WI_R_1": 1,
  "OCL_DIM_L_1": 6,
  "OCL_DIM_L_2": 5,
  "OCL_DIM_L_3": 4,
  "OCL_DIM_L_4": 3,
  "OCL_DIM_L_5": 2,
  "OCL_DIM_L_6": 1,
  "OCL_DIM_R_1": 0,
  "P_CB_RES_DEST_LEVEL": 0,
  "P_CB_SIZE_L_1": 1,
  "P_CB_SIZE_L_2": 1,
  "P_CB_SIZE_L_3": 1,
  "P_CB_SIZE_L_4": 1,
  "P_CB_SIZE_L_5": 1,
  "P_CB_SIZE_L_6": 1,
  "P_CB_SIZE_R_1": 1
}