{
	"CACHE_L_CB": 1,
	"CACHE_P_CB": 1,
	"G_CB_RES_DEST_LEVEL": 2,
	"L_CB_RES_DEST_LEVEL": 0,
	"P_CB_RES_DEST_LEVEL": 0,
	"L_CB_SIZE_L_1": 4,
	"P_CB_SIZE_L_1": 1,
	"NUM_WG_L_1": 4,
	"NUM_WI_L_1": 4,
	"OCL_DIM_L_1": 1,
	"L_CB_SIZE_L_2": 8,
	"P_CB_SIZE_L_2": 1,
	"NUM_WG_L_2": 256,
	"NUM_WI_L_2": 8,
	"OCL_DIM_L_2": 2,
	"L_CB_SIZE_L_3": 16,
	"P_CB_SIZE_L_3": 1,
	"NUM_WG_L_3": 4,
	"NUM_WI_L_3": 2,
	"OCL_DIM_L_3": 3,
	"L_CB_SIZE_R_1": 4,
	"P_CB_SIZE_R_1": 1,
	"NUM_WG_R_1": 1,
	"NUM_WI_R_1": 2,
	"OCL_DIM_R_1": 0
}
