{
    "layers": "72;36;1",
    "chain_count": 1,
    "batch_size": 256,
    "01_forward_tuning_configs": 10000,
    "01_forward_max_time": 705,
    "02_forward_last_tuning_configs": 10000,
    "02_forward_last_max_time": 705,
    "03_backward_tuning_configs": 10000,
    "03_backward_max_time": 705,
    "04_weight_tuning_configs": 10000,
    "04_weight_max_time": 705,
    "05_weight_bias_tuning_configs": 10000,
    "05_weight_bias_max_time": 705,
    "06_forward_batch_tuning_configs": 10000,
    "06_forward_batch_max_time": 1425
}
