{
    "layers": "110;59;1",
    "chain_count": 10,
    "batch_size": 1024,
    "01_forward_tuning_configs": 10000,
    "01_forward_max_time": 1380,
    "02_forward_last_tuning_configs": 10000,
    "02_forward_last_max_time": 1380,
    "03_backward_tuning_configs": 10000,
    "03_backward_max_time": 1380,
    "04_weight_tuning_configs": 10000,
    "04_weight_max_time": 1380,
    "05_weight_bias_tuning_configs": 10000,
    "05_weight_bias_max_time": 1380,
    "06_forward_batch_tuning_configs": 10000,
    "06_forward_batch_max_time": 2400
}
