{
    "CACHE_L_CB": 0,
    "CACHE_P_CB": 0,
    "G_CB_RES_DEST_LEVEL": 2,
    "G_CB_SIZE_L_1": 1024,
    "G_CB_SIZE_L_2": 1024,
    "G_CB_SIZE_R_1": 1024,
    "L_CB_RES_DEST_LEVEL": 1,
    "L_CB_SIZE_L_1": 16,
    "L_CB_SIZE_L_2": 8,
    "L_CB_SIZE_R_1": 128,
    "NUM_WG_L_1": 64,
    "NUM_WG_L_2": 128,
    "NUM_WG_R_1": 8,
    "NUM_WI_L_1": 2,
    "NUM_WI_L_2": 2,
    "NUM_WI_R_1": 32,
    "OCL_DIM_L_1": 2,
    "OCL_DIM_L_2": 1,
    "OCL_DIM_R_1": 0,
    "P_CB_RES_DEST_LEVEL": 0,
    "P_CB_SIZE_L_1": 1,
    "P_CB_SIZE_L_2": 1,
    "P_CB_SIZE_R_1": 1
}