{
    "CACHE_L_CB": 0,
    "CACHE_P_CB": 0,
    "G_CB_RES_DEST_LEVEL": 2,
    "INPUT_SIZE_L_1": 510,
    "INPUT_SIZE_L_2": 510,
    "INPUT_SIZE_L_3": 510,
    "L_CB_RES_DEST_LEVEL": 2,
    "L_CB_SIZE_L_1": 2,
    "L_CB_SIZE_L_2": 512,
    "L_CB_SIZE_L_3": 8,
    "NUM_WG_L_1": 512,
    "NUM_WG_L_2": 4,
    "NUM_WG_L_3": 512,
    "NUM_WI_L_1": 2,
    "NUM_WI_L_2": 512,
    "NUM_WI_L_3": 1,
    "OCL_DIM_L_1": 2,
    "OCL_DIM_L_2": 0,
    "OCL_DIM_L_3": 1,
    "P_CB_RES_DEST_LEVEL": 0,
    "P_CB_SIZE_L_1": 1,
    "P_CB_SIZE_L_2": 128,
    "P_CB_SIZE_L_3": 1
}