{
	"CACHE_L_CB": 0,
	"CACHE_P_CB": 0,
	"G_CB_RES_DEST_LEVEL": 2,
	"L_CB_RES_DEST_LEVEL": 2,
	"P_CB_RES_DEST_LEVEL": 0,
	"L_CB_SIZE_L_1": 256,
	"P_CB_SIZE_L_1": 1,
	"NUM_WG_L_1": 16,
	"NUM_WI_L_1": 512,
	"OCL_DIM_L_1": 0
}
